<?xml version="1.0" encoding="UTF-8"?>
<!DOCTYPE svg PUBLIC "-//W3C//DTD SVG 1.1//EN" "http://www.w3.org/Graphics/SVG/1.1/DTD/svg11.dtd">
<!-- Creator: CorelDRAW 2018 (64 Bit) -->
<svg xmlns="http://www.w3.org/2000/svg" xml:space="preserve" width="45.5764mm" height="44.4502mm" version="1.1" style="shape-rendering:geometricPrecision; text-rendering:geometricPrecision; image-rendering:optimizeQuality; fill-rule:evenodd; clip-rule:evenodd"
viewBox="0 0 1014.56 989.49"
 xmlns:xlink="http://www.w3.org/1999/xlink">
 <defs>
  <style type="text/css">
   <![CDATA[
    .fil0 {fill:#1C325D}
   ]]>
  </style>
 </defs>
 <g id="Camada_x0020_1">
  <metadata id="CorelCorpID_0Corel-Layer"/>
  <g id="_1530188467568">
   <path class="fil0" d="M518.68 568.41l-56.04 0 0 -52.14 61.25 0c5.3,0 12.37,3.02 16.24,6.57l3.22 3.29c11.12,13.14 0.81,42.28 -24.67,42.28zm-3.26 -102.33l-52.78 0 0 -44.32 49.52 0c19.47,0 30.07,20.81 17.06,37.27 -2.35,2.98 -8.67,7.05 -13.8,7.05zm-102.96 -91.91l0 241.82c0,1.5 0.45,1.96 1.96,1.96l106.86 0c40.81,0 75.59,-34.91 75.59,-73 0,-18.43 -3.9,-35.24 -15.83,-49.35 -1.88,-2.22 -8.15,-8.57 -10.24,-9.97 7.56,-14.28 12.61,-20.88 13.67,-41.12l-2.06 -16.77c-7.75,-31.37 -36.91,-55.52 -67.65,-55.52l-100.35 0c-1.5,0 -1.96,0.45 -1.96,1.95z"/>
   <path class="fil0" d="M200.05 441.31c0,10.65 2.27,22.74 6.07,29.78 15.1,27.96 36.75,31.69 64.59,42.94 15.74,6.36 29.36,8.12 43.18,19.38 10.5,8.55 13.11,20 1.6,27.94 -9.87,6.81 -21.31,7.72 -34.64,7.72 -23.38,0 -44.08,-16.69 -56.04,-34.54 -3.4,0.91 -34.44,28.16 -41.05,32.59 2.84,5.38 14.26,14.91 19.39,19.71 6.73,6.3 14.72,12.02 22.83,16.92 7.69,4.64 17.72,8.99 27.26,11.84 5.72,1.71 24.26,4.43 30.07,4.11 27.57,-1.52 46.6,-5.93 64.1,-19.9 16.68,-13.31 25.32,-31.35 25.32,-58.11 0,-23.05 -14.45,-39.89 -31.45,-52.62 -27.27,-20.4 -90.4,-31.41 -90.4,-49.72 0,-6.08 5.28,-11 9.48,-13.33 12.01,-6.67 34.06,-6.29 46.98,-2.08 5.05,1.65 8.41,3.32 12.06,6.19 1.47,1.16 3.39,2.56 4.59,3.88l13.56 13.81 40.4 -28.03c-1.03,-3.86 -20.79,-22.29 -26.34,-26.45 -8.26,-6.19 -18.78,-12.34 -28.62,-15.69 -21.58,-7.34 -33.98,-7.31 -55.83,-5.47 -6.07,0.51 -11.11,1.78 -16.2,3.35 -18.49,5.73 -34.81,16.46 -43.52,34.03 -3.92,7.91 -7.37,20.21 -7.37,31.73z"/>
   <path class="fil0" d="M734.37 619.25c31.73,0 58.87,-12.23 78.67,-31.46 5,-4.85 8.19,-6.63 13.76,-13.61 1.51,-1.89 3.13,-3.36 4.66,-5.12 -1.36,-2.04 -6.65,-6.1 -8.93,-8.01l-22.84 -20.17c-1.72,-1.6 -3.05,-2.96 -4.72,-4.41l-7.66 7.98c-1.31,1.4 -1.38,1.86 -2.6,3.26l-11.88 10.27c-4.24,3.2 -9.14,5.71 -14.42,7.73 -25.76,9.85 -52.73,2.56 -69.28,-19.18 -19.94,-26.19 -19.6,-79.95 0.85,-105.98 25.96,-33.06 71.5,-26.99 98.65,3.85 1.68,1.91 4.61,5.03 5.05,6.68 3.96,-0.92 14.8,-12.51 18.9,-15.64 3.32,-2.54 5.99,-5.49 9.32,-8.28 2,-1.68 2.63,-2.05 4.52,-3.95 1.49,-1.5 3.4,-2.95 5.06,-4.06 -1.28,-2.43 -5.8,-7.08 -8.31,-9.93 -1.54,-1.75 -2.97,-3.07 -4.72,-4.41 -3.32,-2.54 -7.39,-7 -14.8,-12.57 -11.36,-8.53 -21.72,-14.36 -35.94,-18.8 -39.4,-12.3 -89.57,-0.24 -114.4,31.74 -14.17,18.25 -23.31,37.82 -26.54,61.44 -0.53,3.83 -1.63,8.95 -1.85,13.14 -0.39,7.51 -0.66,13.26 -0.03,20.9 0.19,2.3 -0.09,4.83 0.03,7.14 0.61,11.79 6.7,37.26 11.5,47.15 5.83,12.01 8.13,16.56 16.79,27.53 19.62,24.82 49.79,36.77 81.18,36.77z"/>
   <path class="fil0" d="M196.79 313.55c0.7,0.96 4.64,4.35 6.01,5.72 1.43,1.41 1.76,1.5 3.21,2.66 1.21,0.97 1.86,1.73 2.99,2.88l12.55 10.91c4.47,-6.68 23.96,-23.03 31,-28.31 24.36,-18.25 50.37,-30.96 80.68,-38.57 39.98,-10.03 81.67,-8.71 120.87,3.73 4.71,1.49 9.17,3.17 14.01,4.89l32.46 15.76c10.74,6.46 4.82,2.51 27.99,-8.24 42.05,-19.51 78.75,-26.17 126.31,-20.96 6.37,0.7 18.93,2.96 25.19,4.79 2.18,0.64 3.49,0.78 5.81,1.36 31.12,7.81 68.55,28.73 91.33,50.73l15.16 14.82 24.11 -22.16c-0.7,-2.62 -13.66,-14.87 -16.45,-17.44 -17.96,-16.62 -39.46,-30.62 -61.44,-41.53 -56.43,-28.02 -124.02,-32.95 -184.65,-15.26 -11.93,3.48 -22.64,7.85 -34.14,12.78 -20.32,8.7 -3.53,8.59 -38.53,-5.41 -58.3,-23.33 -122.56,-23.19 -181.78,-2.48 -4.45,1.55 -8.08,3.22 -12.13,4.81 -4.02,1.58 -8.22,3.44 -12.17,5.43 -15.47,7.8 -29.3,16.01 -42.48,25.95l-18.82 15.72c-5.47,5.49 -6.85,6.15 -13.77,13.6 -0.47,0.51 -0.75,0.82 -1.25,1.36 -1.04,1.14 -1.26,1.23 -2.09,2.47z"/>
   <path class="fil0" d="M288.01 685.08c1.47,2.19 3.58,4.79 5.41,6.97 1.22,1.44 1.46,1.53 2.69,3.17l8.46 10.44c1.14,1.47 1.64,1.77 2.83,3.04l25.95 27.49c0.62,0.63 1.16,1.18 1.63,1.63l1.36 1.25c9.24,8.34 17.94,17.28 27.45,25.33 1.56,1.32 2,1.42 3.56,2.96 11.43,11.37 35.23,28.57 48.66,38.67 19.04,14.31 38.98,27.97 59.29,40.42 3.96,2.43 29.71,18.23 31.66,18.24 3.2,0 25.72,-15 31.06,-18.17 18.11,-10.76 34.83,-23.27 52.21,-35.12 2.49,-1.7 4.83,-3.38 7.21,-5.18 4.84,-3.65 9.2,-6.91 14.15,-10.62l14.25 -11.17c2.59,-1.94 4.42,-3.66 6.79,-5.59 2.49,-2.03 4.37,-3.37 6.77,-5.61 1.42,-1.32 1.86,-1.39 3.25,-2.62 1.53,-1.36 1.72,-1.66 3.48,-3.04l48.02 -45.17 26.27 -30.43c2.09,-2.68 4.53,-4.56 4.84,-8.2 -3.41,-0.91 -10.16,-7.13 -13.31,-9.5 -2.35,-1.76 -4.08,-3.05 -6.33,-4.75 -1.95,-1.46 -4.72,-4.03 -7.07,-4.66 -0.83,3.13 -15.91,20.73 -19.37,24.29l-41.38 41.39c-24.05,22.25 -51.01,41.37 -77.29,60.87 -11.93,8.86 -27.3,19.06 -39.88,26.59l-13.65 8.51c-4.32,-2.89 -8.78,-5.18 -13.29,-8.22l-13.55 -8.61c-26.14,-16.25 -65.3,-45.55 -89.04,-66.06l-11.83 -10.33c-1.29,-0.98 -1.53,-1.21 -2.77,-2.44l-31.21 -30.05c-1.99,-2.49 -3.01,-3.55 -5.28,-5.8 -7.45,-7.36 -19.75,-21.93 -25.25,-30.15 -4.89,2.59 -9.06,6.66 -13.49,9.96 -2.58,1.93 -11.95,8.51 -13.22,10.24z"/>
   <path class="fil0" d="M101.65 327.89l-22.81 -11.08c2.25,-4.25 10.1,-21.58 12.83,-24.32 7.04,-7.06 21.05,-4.3 21.05,11.28 0,2.32 -9.41,20.97 -11.08,24.12zm-29.97 -14.99c-4.91,-0.41 -14.69,-7.84 -20.2,-9.13 0.23,-2.76 8.72,-19.54 10.87,-21.71 5.16,-5.18 13.25,-3.83 16.62,0.73 5.66,7.64 0.54,14.28 -4.68,24.91 -0.85,1.73 -1.72,3.52 -2.62,5.21zm-31.28 -5.22l40.4 19.56c1.37,0.69 2.65,1.25 3.99,1.87 4.82,2.23 17.61,9.12 20.77,9.86 3.38,-14.53 25.8,-33.67 9.95,-51.66 -2.97,-3.37 -9.25,-6.35 -15.16,-6.35 -5.89,0 -7.67,2.31 -11.73,3.26 -3.29,-14.12 -27.43,-22.35 -37.72,0.73 -0.83,1.86 -1.6,3.47 -2.54,5.28 -1.72,3.29 -7.77,15.18 -7.96,17.46z"/>
   <path class="fil0" d="M740.88 131.05c1.34,-2.54 2.37,-3.7 3.91,-5.87 1.4,-1.97 2.51,-3.74 4.01,-5.76 1.48,-2 2.52,-3.76 3.93,-5.84 1.45,-2.14 2.54,-3.44 4.05,-5.73 5.29,-8 10.81,-15.28 16.03,-23.08l16.3 11.07c14.18,10.05 12.76,26.25 2.89,39.41 -3.59,4.79 -9.05,9.29 -15.44,10.63 -11.41,2.39 -19.4,-3.5 -27.76,-9.71 -2.42,-1.8 -5.29,-3.72 -7.92,-5.12zm-11.08 1.95c21.37,14.32 40.76,35.55 65.98,10.6 1.95,-1.94 2.31,-2.28 3.88,-4.6 9,-13.31 12.26,-26.23 3.26,-40.68 -2.38,-3.83 -5.83,-6.79 -9.44,-9.46 -3.02,-2.23 -20.42,-14.65 -22.63,-15.17 -1.74,1.27 -32.43,45.92 -36.1,51.23 -1.4,2.02 -4.39,6 -4.95,8.09z"/>
   <path class="fil0" d="M43.66 688.34c0,-9.93 2.65,-15.24 9.95,-20.68 12.63,-9.42 31.62,-11.71 41.67,4.25 1.81,2.88 8.91,19.36 8.98,22.3 -2.8,0.65 -3.63,1.27 -6.14,2.33l-32.49 13.12c-4.41,1.77 -8.98,3.35 -12.84,5.4 -2.68,-5.07 -9.12,-22.17 -9.12,-26.72zm-8.47 -4.56c0,12.13 1.05,12.94 5.59,23.74 1.36,3.24 6.57,15.37 6.79,17.98 2.87,-0.24 6.24,-2.29 8.56,-3.17l25.07 -10.12c6.38,-2.26 29.41,-12.34 34.13,-13.44 -1.15,-4.94 -4.1,-10.35 -5.79,-15.07l-6.45 -15.06c-12.38,-21.47 -37.29,-20.74 -55.17,-7.32 -5.83,4.38 -12.74,12.69 -12.74,22.45z"/>
   <path class="fil0" d="M948.75 539.08c0,-8.24 1.3,-18.26 1.3,-22.81l28.04 1.94c3.23,0.08 3.24,0.6 6.48,0.69 8.39,0.22 13.36,1.28 21.52,1.28 0,5.95 -1.6,22.74 -3.33,27.3 -2.76,7.28 -8.88,12.91 -16.78,14.5 -18.63,3.74 -37.22,-4.96 -37.22,-22.9zm29.32 32.59c22.22,0 34.66,-15.1 35.19,-36.5 0.18,-7.38 1.3,-14.95 1.3,-22.81l-53.99 -3.35c-5.68,-0.63 -11.88,-1.21 -18.34,-1.21 0,14.78 -4.78,33.04 1.85,45.73 6.49,12.41 20.69,18.15 33.99,18.15z"/>
   <path class="fil0" d="M34.54 492.15c31.67,0 29.97,20.78 29.97,44.32l-56.04 0.65c0,-12.54 -2.32,-22.53 2.72,-31.82 2.2,-4.05 4.97,-7.17 8.98,-9.26 3.8,-1.98 8.55,-3.89 14.36,-3.89zm-34.54 24.77l0 20.21c0,3.96 0.65,4.75 0.65,8.47 6.73,0 11.49,-0.69 17.59,-0.65l45.63 0.02c4.17,0.02 5.35,-0.67 9.11,-0.67 0,-17.39 1.67,-36.37 -7.43,-47.97 -17.07,-21.77 -65.55,-16.23 -65.55,20.59z"/>
   <path class="fil0" d="M916.82 677.26c0,-2.52 1.56,-7.85 2.4,-9.99 1.2,-3.09 2.6,-5.52 4.6,-7.78 14.25,-16.1 46.71,-4.08 50.18,14.69 4.24,22.92 -20.13,41.71 -46.76,22.65 -5.02,-3.59 -10.42,-11.01 -10.42,-19.56zm32.58 35.85c9.55,0 19.23,-3.99 24.87,-10.98 4.96,-6.14 9.9,-16.48 8.42,-26.86 -1.48,-10.39 -6.55,-17.23 -13.45,-22.41 -4.15,-3.12 -6.62,-4.4 -11.82,-6.43 -28.04,-10.97 -51.11,10.06 -48.4,34.69 2.14,19.49 23.09,32 40.38,32z"/>
   <path class="fil0" d="M830.16 818.05c0,-21.13 26.83,-35.02 45.45,-16.14 12.63,12.79 16,26.14 1.96,40.1 -12.53,12.48 -34.48,4.56 -43.8,-11.95 -1.77,-3.14 -3.62,-7.57 -3.62,-12.02zm-7.82 -1.95c0,11.91 3.62,20.39 12.13,28.27 3.56,3.3 5.6,5.3 10.01,7.59 28.85,14.94 50.18,-9.99 50.18,-26.08 0,-11.91 -2.18,-17.69 -9.52,-26.33 -0.56,-0.66 -0.37,-0.47 -0.89,-1.07 -0.09,-0.1 -0.21,-0.25 -0.3,-0.35 -5.4,-5.94 -17.13,-13.32 -25.78,-13.32l-5.87 0c-14.81,0 -29.97,16.13 -29.97,31.29z"/>
   <path class="fil0" d="M265.21 941.24c-6.86,0 -13.71,-3.89 -17.46,-7.3l-5.57 -6.81c-6.48,-11.97 1.32,-29.83 9.24,-36.18 11.77,-9.45 22.98,-9.79 35.03,0.37 3.9,3.29 7.43,11.74 7.43,16.68 0,7.86 -4.27,16.29 -8.46,22.17 -3.9,5.47 -13.32,11.07 -20.21,11.07zm-33.89 -27.38c0,15.2 5.77,24.43 18.61,31.57 13.67,7.61 30.25,3.32 40.84,-8.6 9.91,-11.15 14.93,-29.62 7.46,-43.63 -10.66,-20 -45.49,-28.82 -62.8,5.87 -1.65,3.31 -4.12,10.21 -4.12,14.79z"/>
   <path class="fil0" d="M1000.22 430.23c0,10.43 5.78,23.71 -2.19,29.74 -8.68,6.57 -19.26,2.53 -20.91,-8.59 -0.55,-3.68 -0.87,-6.62 -1.39,-10.34 -1.25,-9 -0.98,-7.99 2.26,-8.25l22.23 -2.56zm-65.16 -0.65c0.06,2.57 0.65,2.87 0.65,7.82 8.93,0 27.17,-3.16 29.6,-2.99 2.44,0.17 1.51,0.87 1.91,4.06 0.46,3.71 1.07,8.02 1.07,12.62 -5.79,3.07 -23.5,17.16 -28.02,19.56 0,3.74 0.65,4.95 0.65,9.12 1.98,-0.53 12.66,-8.12 14.98,-9.78 1.42,-1.02 1.74,-1.32 3.47,-2.4l11.52 -8.03c7.81,14.77 24.88,14.57 33.74,5.73 11.49,-11.46 2.75,-30.12 2.75,-44.18 -10.89,0 -61.78,8.47 -72.33,8.47z"/>
   <path class="fil0" d="M115.33 239.9c-2.22,-0.59 -16.97,-12.18 -20.2,-14.34 1.7,-3.21 11.03,-16.68 14.58,-18.66 7.95,-4.44 19.3,-0.84 19.3,12.14 0,4.15 -12.35,19.89 -13.68,20.86zm-31.93 -12.38c2.11,0.57 5.42,3.58 7.35,5.03 2.53,1.9 4.53,3.51 7.11,5.27 2.61,1.78 4.65,3.38 7.13,5.25 2.59,1.96 4.88,3.49 7.54,5.49l28.86 21.32c2.11,-1.41 3.98,-4.19 5.21,-6.52 -2.38,-1.59 -22.61,-16.01 -24.11,-18.25 0.53,-1.99 7.42,-10.48 9.12,-13.04 4.79,0.11 12.21,1.6 17.21,2.34l17.98 2.22c2.59,-4.9 4.27,-4.35 4.56,-7.82l-25.88 -3.45c-2.58,-0.34 -5.29,-1.12 -8.65,-1.12 0,-6.01 2.03,-11.09 -3.42,-18.74 -7.05,-9.9 -19.83,-11.43 -30.09,-4.36 -2.82,1.95 -5,5.6 -7.16,8.48l-12.75 17.88z"/>
   <path class="fil0" d="M544.75 35.23c0,-8.94 1.9,-16.92 2.61,-25.42l19.94 2.22c14,3.01 13.01,23.49 -1.12,25.12 -3.11,0.36 -15.3,-1.92 -21.42,-1.92zm-4.56 38.46c0,-4.43 0.95,-10.78 1.58,-15.36l1.67 -15.27c3.83,0.32 10.62,1.08 13.92,1.72 4.03,0.79 2.92,1.36 6.18,9.46 1.56,3.88 3.21,7.2 4.59,11.06 0.71,1.99 1.36,3.59 2.25,5.57 2.74,6.06 0.22,7.39 11.5,7.39 -0.28,-3.33 -12.09,-29.82 -12.38,-33.24 20.32,-4.73 21.79,-34.08 1.91,-40.36l-31.23 -3.96 -7.11 60.02c-0.92,11.29 -4.84,12.98 7.11,12.98z"/>
   <path class="fil0" d="M751.31 879.32c0,3.86 0.6,3.41 4.19,8.19 2.92,3.89 11.72,16.31 14.06,17.88 2.51,-1.33 20.99,-15.21 22.15,-16.95 -1.25,-2.36 -2.4,-4.42 -4.56,-5.87 -2.19,0.59 -6.02,4.03 -8.1,5.59 -2.84,2.13 -5.48,4.33 -8.19,6.14 -10.18,-15.21 -14.87,-13.48 -9.01,-23.35 3.61,-6.08 12.17,-12.5 20.08,-12.5 6.08,0 9.05,0.22 14.32,3.27 14.84,8.59 29.15,35.76 3.66,49.91 -6.64,3.69 -9.92,2.76 -16.66,2.09 -0.15,1.79 -1.49,6.11 -0.98,7.01 0.83,1.46 5.1,1.59 7.48,1.59 9.74,0 16.21,-4.33 21.89,-8.74 14.8,-11.49 12.55,-31.14 3.27,-45.11 -5.37,-8.1 -17.25,-18.5 -29.07,-18.5 -10.38,0 -17.23,1.99 -24.61,9.27 -5.07,5.01 -9.92,12.41 -9.92,20.06z"/>
   <path class="fil0" d="M655.52 37.19l1.3 29.98c-6.87,-1.6 -12.74,-4.28 -19.55,-5.87 0.77,-1.46 16.33,-22.71 18.24,-24.11zm-46.26 46.93c2.12,0.18 6.85,1.83 8.47,2.61l14.34 -18.25c2.07,0 9.43,2.76 12.1,3.54 3.6,1.06 9.16,3.34 12.66,3.63 0,4.73 0.69,6.55 0.67,11.07 -0.02,4.13 -0.02,8.27 -0.02,12.4 3.09,0.72 5.78,1.83 9.12,2.61 0,-16.81 -2.04,-40.47 -1.95,-57.36 0.03,-6.51 -0.66,-12.27 -0.66,-19.55 -2.21,-0.51 -6.65,-1.73 -8.47,-2.61l-23.27 30.82c-2.16,2.88 -22.29,28.48 -22.99,31.1z"/>
   <path class="fil0" d="M663.99 944.5l18.9 -7.17c0,10.15 0.65,19.22 0.65,29.98 -2,-1.34 -8.36,-9.24 -9.77,-11.08l-9.77 -11.73zm18.24 -39.11l0 23.46 -24.11 9.12 -14.99 -17.6c-2.53,1.21 -5.87,2.01 -8.47,3.26l15.15 18.09c1.52,1.6 1.8,2.34 3.26,3.91 1.44,1.55 1.71,1.92 3,3.52 1.23,1.53 2.14,2.23 3.35,3.82l24.76 29.33c1.89,-0.44 6.72,-2.42 8.47,-3.26l-1.95 -76.91c-1.89,0.44 -6.72,2.42 -8.47,3.26z"/>
   <path class="fil0" d="M49.52 589.92l3.91 19.55c-5.49,-1.28 -27.13,-3.51 -29.32,-4.56 1.14,-1.55 4.16,-2.82 5.9,-3.87 2.22,-1.34 4.38,-2.63 6.51,-3.91 2.58,-1.54 10.7,-6.67 13,-7.21zm-40.4 13.04c0,3.8 1.22,5.62 1.3,9.13l27.98 3.95c3.17,0.44 6.45,0.8 9.72,1.36 5.76,0.98 32.59,5.12 38.54,5.12 -0.08,-3.57 -1.3,-4.59 -1.3,-8.47 -3.86,-0.9 -6.99,-0.96 -11.38,-1.66 -4.38,-0.7 -7.37,-1.6 -12.08,-1.6 -0.14,-6.24 -4.56,-19.01 -4.56,-26.72 2.85,-0.66 7.21,-3.74 9.74,-5.25 3.15,-1.89 6.51,-4.08 9.81,-5.83 -0.2,-2.43 -1.38,-6.66 -1.95,-9.12l-16.33 9.74c-2.6,1.55 -46.96,28.69 -49.49,29.37z"/>
   <path class="fil0" d="M946.14 355.27c10.76,0 19.82,0.65 29.97,0.65 -0.66,0.98 -21.5,17.55 -24.11,18.25 -0.39,-1.68 -0.79,-2.9 -1.3,-4.56 -0.62,-2.03 -1.04,-2.59 -1.69,-4.83 -0.85,-2.92 -1.85,-7.21 -2.87,-9.51zm-0.65 24.77l-13.5 9.96c-1.54,1.17 -2.91,2.58 -4.75,3.07 0,4.61 1.63,5.26 1.95,9.12 2.49,-0.21 2.34,-0.7 4.29,-2.22l57.61 -44.05c-1.33,-2.78 -0.71,-3.66 -3.26,-8.47 -26.06,0 -50.34,-1.95 -76.24,-1.95 0.84,10.07 5.11,8.61 7.98,8.96 3.43,0.41 14.52,-0.35 16.54,0.4 2,0.75 1.07,0.21 1.84,2.07l7.52 23.12z"/>
   <path class="fil0" d="M122.5 727.45c0.66,2.46 11.8,18.73 14.06,22.44 1.77,2.9 3.11,4.96 4.84,7.55 -4.5,1.2 -17.43,11.93 -22.16,13.04 -1.87,-3.55 -14.26,-24.28 -16.94,-26.07 -2.66,0.71 -3.86,2.55 -6.52,3.26 0.5,2.17 2.75,5.45 3.9,7.18l8.69 13.47c1.34,2.28 3.76,5.14 4.35,7.38 -1.99,0.53 -3.04,1.59 -4.56,2.61 -1.64,1.11 -3,1.79 -4.84,2.99l-9.51 6.14c-2.68,-5.07 -17.41,-26.2 -18.24,-29.33 -3.11,0.26 -4.28,2.49 -7.17,3.26 0.32,3.85 19.62,32.39 22.81,37.15 2.19,-0.51 41.12,-25.71 45.52,-28.77l15.73 -9.69c-0.61,-2.28 -21.87,-34.78 -23.46,-37.15 -2.18,1.16 -5.22,2.64 -6.52,4.56z"/>
   <path class="fil0" d="M167.46 149.95c1.95,0.16 5.04,2.01 6.79,2.98l19.92 10.05c-1.41,2.1 -11.65,12.91 -14.99,13.69l-11.73 -26.72zm-12.38 -7.82l29.66 68.1c1.03,2.32 0.28,-0.26 0.96,2.3 2.06,-1.09 1.7,-0.73 3.44,-2.42 5.27,-5.1 3.35,-3.16 -1.22,-14.15 -1.64,-3.95 -3.01,-7.35 -4.84,-10.81l9.62 -8.63c10.61,-10.42 7.66,-10.71 17.37,-5.34 3.02,1.67 10.18,5.55 12.76,6.14 2.28,-1.53 5.77,-3.74 6.52,-6.52 -3.33,-0.78 -13.23,-6.58 -17.02,-8.39l-42.81 -21.71c-2.77,-1.65 -6,-2.71 -8.59,-4.44 -0.71,0.98 -0.41,0.56 -1.26,1.35 -0.09,0.09 -0.24,0.22 -0.34,0.31l-1.43 1.18c-0.69,0.58 -2.84,2.36 -2.84,3.02z"/>
   <path class="fil0" d="M410.52 8.51l8.93 62.77c0.51,3.05 1.27,6.18 1.5,8.93 4.83,0 6.98,-0.58 10.61,-1.12l21.7 -3.06c3.46,-0.51 7.5,-1.62 10.69,-1.69 0,-3.81 -0.65,-4.55 -0.65,-7.82 -5.49,0 -23.17,3.11 -29.93,3.98 -6.5,0.84 -5.23,2.75 -6.93,-8.82 -0.69,-4.71 -2.24,-11.14 -2.24,-15.36l31.28 -4.56c0,-11.19 -0.47,-8.29 -13.07,-6.55l-19.51 2.64c-0.61,-7.35 -2.65,-14.81 -3.26,-22.16 5.28,-0.12 23.99,-3.79 30.72,-4.47 6.28,-0.63 3.17,-0.27 3.17,-8.56 -2.89,0 -7.7,0.83 -10.43,1.3l-32.58 4.57z"/>
   <path class="fil0" d="M2.61 447.17c2.37,1.14 5.46,1.58 8.52,1.9l26.94 4.34c6.13,0.93 12.38,1.69 18.03,2.82l18.84 2.67c0,-3.36 0.75,-8.04 1.36,-11.03l3.39 -21.38c0.43,-2.81 1.7,-7.33 1.77,-10.61 -10.32,-0.86 -7.34,-7.34 -11.91,22.63 -0.47,3.11 -1.77,7.5 -1.77,11.26 -3.67,-0.08 -8.23,-1.52 -12.38,-1.95 -4.18,-0.43 -8.36,-1.87 -12.38,-1.96 0,-5.86 1.32,-10.41 2.14,-16.11 0.61,-4.2 2.32,-11.32 2.42,-15.83 -2.23,-0.05 -2.61,-0.36 -4.65,-0.67 -4.87,-0.75 -2.87,-1.56 -5.3,10.92l-3.08 20.38 -22.16 -3.26c0,-5.09 5.21,-30.5 5.21,-35.2 -2.02,-0.47 -5.51,-1.25 -7.82,-1.3 -2.44,10.45 -4.29,30.02 -7.17,42.37z"/>
   <path class="fil0" d="M324.5 930.16c0,4.38 2.07,9.26 3.89,11.75 3.75,5.13 3.54,4.53 7.64,8l9.33 8.26c0.1,0.09 0.25,0.21 0.35,0.3l2.45 2.76c4.78,6.42 4.51,12.85 -3.57,15.12 -6.62,1.86 -15.1,-1.75 -19.63,-6.26 -3.51,-3.49 -2.99,-4.4 -5.03,-8.65 -2.82,0.23 -6.36,1.59 -8.47,2.61 3.82,16.38 30.41,28.38 42.86,16.8 9.09,-8.46 7.98,-21.27 -2.74,-29.56 -1.95,-1.51 -2.5,-2.26 -4.19,-3.64 -5.52,-4.49 -13.79,-9.71 -13.79,-18.15 0,-15.57 30.92,-9.86 35.19,8.47 2.69,-0.22 5.9,-2.01 8.47,-2.61 -3.64,-15.65 -28.04,-29.63 -43.89,-20.44 -4.23,2.45 -8.89,8.88 -8.89,15.23z"/>
   <path class="fil0" d="M792.36 178.63l31.28 29.98c1.97,-1.32 4.53,-3.31 5.21,-5.87l-18.91 -18.23c-2.07,-1.73 -5.07,-3.63 -5.85,-6.54 0.6,-0.89 16.32,-17.18 16.94,-17.6l20.76 19.65c1.73,1.77 0.51,-0.57 1.39,1.87 3.14,-0.26 5.14,-3.16 6.52,-5.22l-13.87 -14.15c-0.74,-0.65 -0.7,-0.58 -1.41,-1.19l-7.52 -7.47c2.58,-1.73 5.81,-5.31 7.88,-7.76 2.05,-2.44 5.33,-6.26 7.76,-7.88 2.47,1.65 4.1,3.92 6.37,6.01 0.49,0.45 0.98,0.85 1.37,1.23l0.65 0.66c0.18,0.18 0.51,0.58 0.96,1l16.06 15.22 5.21 -5.87 -12.95 -13.12c-4.88,-4.49 -14.89,-15.01 -17.67,-16.87 -3.55,2.38 -10.25,10.12 -13.6,13.77l-1.87 2.04c-1.21,1.26 -2.03,2.02 -3.26,3.25l-18.9 19.55c-2.17,2.17 -4.54,4.22 -6.4,6.63 -2.14,2.77 -4.5,4.45 -6.14,6.9z"/>
   <path class="fil0" d="M217.64 99.76c0,10.09 7.18,18.9 15.64,18.9 15.46,0 34.52,-11.08 40.4,0.01 3.37,6.35 -1.64,12.02 -5.37,15.48 -6.42,5.96 -16.75,9.45 -25.26,5.37 -0.66,2.84 -1.88,5.08 -1.95,8.47 7.35,1.71 5.16,1.3 13.03,1.3 14.65,0 36.87,-18.42 26.22,-36 -10.96,-18.1 -38.18,-0.65 -49.23,-4.85 -7.31,-2.78 -6.31,-12.33 1.57,-18.39 11.06,-8.5 16.66,-4.09 21.43,-3.98 0.78,-1.62 2.43,-6.36 2.61,-8.47 -9.54,-0.79 -14.88,-4.6 -29.15,6.04 -2.87,2.14 -4.42,3.61 -6.53,6.51 -1.52,2.09 -3.42,6.26 -3.42,9.61z"/>
   <path class="fil0" d="M463.95 692.9c0,-3.55 -0.02,-9.78 6.52,-9.78 3.78,0 5.83,1.49 7.17,3.91 1.21,2.18 2.32,6.16 0.84,7.97 -3.5,4.28 -14.53,3.5 -14.53,-2.1zm-11.08 -2.61c0,6.48 1.56,11.1 6.21,14.65 5.1,3.9 6.96,3.6 15.3,3.6 -2.58,3.86 -11.42,10.29 -17.59,10.43 0.3,3.65 1.85,6.51 2.61,9.78 7.31,0 14,-4.01 19.15,-8.22 10.96,-8.95 16.2,-29.44 6.65,-41.71 -8.73,-11.22 -32.32,-7.24 -32.32,11.47z"/>
   <path class="fil0" d="M884.24 285.53c0,10.7 7.49,22.29 15.66,27.36 1.56,0.97 8.16,3.93 10.4,3.93 2.75,0 1.98,-4.5 3.26,-7.17 -9.05,-2.11 -14.58,-6.1 -18.6,-14.64 -5.44,-11.55 -0.37,-22.56 8.44,-29.42 11.58,-9.02 29.66,-13.43 39.85,-1.28 2.69,3.2 6.8,11.21 6.8,16.66 0,4.05 -1.21,6.6 -1.95,9.78 3.45,0.29 3.62,1.86 7.82,1.96 0.6,-7.18 7.1,-16.91 -7.06,-34.65 -9.3,-11.66 -26.52,-11.44 -39.19,-5.75 -12.6,5.65 -25.42,17.39 -25.42,33.24z"/>
   <path class="fil0" d="M190.27 827.83l0 1.96c8.27,0 13.98,-0.65 21.35,6.67 2.15,2.14 3.31,2.96 4.73,5.69 10.63,20.53 -12.15,43.04 -26.74,43.04 -7.9,0 -13.21,-1.95 -18.75,-7.97 -4.01,-4.36 -6.66,-9.27 -6.66,-17.45l-7.82 0c0,19.81 16.31,33.89 29.32,33.89 13.24,0 20.25,-3.51 29.82,-13.19 1.55,-1.57 2.79,-3.23 4.16,-4.96 1.5,-1.89 2.47,-3.88 3.68,-6.1 3.76,-6.9 4.04,-10.8 4.04,-18.77 0,-14.3 -15.49,-28.68 -29.97,-28.68l-7.82 0c0.07,2.95 0.65,2.59 0.65,5.87z"/>
   <path class="fil0" d="M547.35 682.48c3.55,1.88 5.51,4.53 8.47,6.52 4.84,-3.24 2.37,-5.22 10.42,-5.22 4.84,0 9.25,7.13 -0.47,9.3 -8.19,1.83 -8,-3.14 -8,8.95 0,4.73 15.64,-1.5 15.64,9.78 0,8.45 -14.87,8.42 -16.94,0.65 -1.98,0.53 -8.41,6.19 -9.12,7.17 9.26,13.82 37.14,12.63 37.14,-9.13 0,-4.07 -1.67,-10.61 -5.86,-11.73 0.67,-2.51 3.91,-4.29 3.91,-10.43 0,-18.14 -25.93,-19.7 -35.19,-5.87z"/>
   <path class="fil0" d="M521.29 694.21c0.06,2.95 0.65,2.59 0.65,5.87l0 3.91 -8.47 0c2.31,-3.45 5.12,-6.67 7.82,-9.78zm-22.16 13.69l0 7.17 22.81 0 0 13.04 10.43 0 0 -13.04c5.63,0 4.56,1.27 4.56,-11.08l-4.56 0 0 -31.29c-9.79,0 -7.21,-2.31 -17.59,12.39 -2.35,3.33 -15.64,21.51 -15.64,22.81z"/>
   <path class="fil0" d="M329.72 31.32c0.07,3.35 11.58,37.71 13.28,42.78 1.29,3.83 8.18,24.09 8.23,26.32 4.47,-0.1 34.62,-11.39 41.7,-13.04 -0.07,-3.31 -1.28,-4.94 -1.95,-7.82 -5.06,0.42 -28.83,10.01 -33.89,10.43l-19.55 -60.62c-3.31,0.07 -4.94,1.28 -7.82,1.95z"/>
   <path class="fil0" d="M865.34 754.17c1.34,1.83 4.48,3.2 6.52,4.56l18.24 -29.98c2.55,0.68 23.3,14.21 27.57,16.74l20.52 12.71c1.42,0.85 2.2,1.29 3.62,2.25 1.64,1.1 1.79,1.48 4.33,1.54 0.48,-2.05 2.23,-4.57 3.26,-6.52l-45.82 -28.47c-3.96,-2.36 -12.82,-8.57 -16.08,-9.34l-11.2 18.13c-1.9,3.15 -10.43,16.14 -10.96,18.37z"/>
   <path class="fil0" d="M490.66 973.83c0,7.58 7.49,15.64 13.03,15.64 6.22,0 9.97,0.51 14.86,-4.69 13.44,-14.33 -7.47,-37.8 -23.19,-21.89 -2.3,2.33 -4.7,6.58 -4.7,10.94z"/>
   <path class="fil0" d="M930.5 605.56l53.16 11.36c4.92,1.08 12.91,3.64 17.87,3.64 0.07,-2.98 1.07,-5.04 1.3,-7.82l-71.02 -15.64c-0.23,2.75 -1.24,5.57 -1.3,8.47z"/>
   <path class="fil0" d="M495.88 73.04l6.52 -0.65c0,-6.07 -0.65,-11.39 -0.65,-18.25l0.02 -28.05c-0.1,-3.47 -0.71,-4.91 -0.68,-9.09 0.02,-3.05 -0.01,-6.09 0.01,-9.14 0.05,-8.81 1.53,-7.82 -8.47,-7.82 0,13.2 0.67,24.13 0.65,37.15l0.65 28.03c-0.02,3.19 -1.01,7.82 1.96,7.82z"/>
   <path class="fil0" d="M709.6 891.05c0.77,3.29 32.24,60.77 33.89,63.88 3.38,-0.28 4,-1.87 7.17,-2.61 -0.06,-2.56 -0.5,-2.65 -1.48,-4.38l-8.5 -15.62c-0.9,-1.6 -1.29,-2.72 -2.19,-4.33l-21.71 -40.2c-1.96,1.04 -4.9,2.73 -7.17,3.26z"/>
   <path class="fil0" d="M286.06 50.22l30.63 65.83c3.15,-0.73 5.28,-1.91 7.82,-3.26l-30.63 -65.18c-3.82,0.32 -4.7,1.88 -7.82,2.61z"/>
   <path class="fil0" d="M117.94 832.39c1.27,1.9 3.2,3.84 4.56,5.87 3.24,-1.72 7.46,-5.91 10.52,-8.38l6.59 -5.8c1.44,-1.34 2.09,-1.61 3.58,-2.94l7.06 -5.98c6.15,-4.81 22.82,-19.96 27.65,-23.19 -0.75,-2.81 -3.07,-5.08 -5.21,-6.52l-34.33 28.88c-3.15,2.66 -18.81,15.68 -20.4,18.05z"/>
   <path class="fil0" d="M430.06 675.96l0 52.15 10.42 0 0 -56.05c-1.86,0.98 -8.23,3.4 -10.42,3.91z"/>
  </g>
 </g>
</svg>
